[
    {
        "subject": "HUMA",
        "code": "1000A",
        "area": "Humanities"
    },
    {
        "subject": "HUMA",
        "code": "1000B",
        "area": "Humanities"
    },
    {
        "subject": "HUMA",
        "code": "1000D",
        "area": "Humanities"
    },
    {
        "subject": "HUMA",
        "code": "1001B",
        "area": "Humanities"
    },
    {
        "subject": "HUMA",
        "code": "1010",
        "area": "Humanities"
    },
    {
        "subject": "HUMA",
        "code": "1020",
        "area": "Humanities"
    },
    {
        "subject": "HUMA",
        "code": "1060",
        "area": "Humanities"
    },
    {
        "subject": "HUMA",
        "code": "1100",
        "area": "Humanities"
    },
    {
        "subject": "HUMA",
        "code": "1102",
        "area": "Humanities"
    },
    {
        "subject": "HUMA",
        "code": "1420",
        "area": "Humanities"
    },
    {
        "subject": "HUMA",
        "code": "1520",
        "area": "Humanities"
    },
    {
        "subject": "HUMA",
        "code": "1639",
        "area": "Humanities"
    },
    {
        "subject": "HUMA",
        "code": "1660",
        "area": "Humanities"
    },
    {
        "subject": "HUMA",
        "code": "1710",
        "area": "Humanities"
    },
    {
        "subject": "HUMA",
        "code": "1720",
        "area": "Humanities"
    },
    {
        "subject": "HUMA",
        "code": "2050",
        "area": "Humanities"
    },
    {
        "subject": "HUMA",
        "code": "2101",
        "area": "Humanities"
    },
    {
        "subject": "HUMA",
        "code": "2104",
        "area": "Humanities"
    },
    {
        "subject": "HUMA",
        "code": "2107",
        "area": "Humanities"
    },
    {
        "subject": "HUMA",
        "code": "2300",
        "area": "Humanities"
    },
    {
        "subject": "HUMA",
        "code": "2590",
        "area": "Humanities"
    },
    {
        "subject": "HUMA",
        "code": "2597",
        "area": "Humanities"
    },
    {
        "subject": "HUMA",
        "code": "2632",
        "area": "Humanities"
    },
    {
        "subject": "HUMA",
        "code": "2640",
        "area": "Humanities"
    },
    {
        "subject": "HUMA",
        "code": "3030",
        "area": "Humanities"
    },
    {
        "subject": "HUMA",
        "code": "3201",
        "area": "Humanities"
    },
    {
        "subject": "HUMA",
        "code": "3680",
        "area": "Humanities"
    },
    {
        "subject": "LANG",
        "code": "1004",
        "area": "Humanities"
    },
    {
        "subject": "SOSC",
        "code": "3001",
        "area": "Humanities"
    },
    {
        "subject": "ACCT",
        "code": "1610",
        "area": "Social Analysis"
    },
    {
        "subject": "ECON",
        "code": "2103",
        "area": "Social Analysis"
    },
    {
        "subject": "ECON",
        "code": "2123",
        "area": "Social Analysis"
    },
    {
        "subject": "ENVR",
        "code": "1080",
        "area": "Social Analysis"
    },
    {
        "subject": "ENVR",
        "code": "2050",
        "area": "Social Analysis"
    },
    {
        "subject": "FINA",
        "code": "1303",
        "area": "Social Analysis"
    },
    {
        "subject": "ISOM",
        "code": "1380",
        "area": "Social Analysis"
    },
    {
        "subject": "ISOM",
        "code": "2030",
        "area": "Social Analysis"
    },
    {
        "subject": "MARK",
        "code": "1220",
        "area": "Social Analysis"
    },
    {
        "subject": "MGMT",
        "code": "1120",
        "area": "Social Analysis"
    },
    {
        "subject": "PPOL",
        "code": "2110",
        "area": "Social Analysis"
    },
    {
        "subject": "SOSC",
        "code": "1300",
        "area": "Social Analysis"
    },
    {
        "subject": "SOSC",
        "code": "1350",
        "area": "Social Analysis"
    },
    {
        "subject": "SOSC",
        "code": "1400",
        "area": "Social Analysis"
    },
    {
        "subject": "SOSC",
        "code": "1420",
        "area": "Social Analysis"
    },
    {
        "subject": "SOSC",
        "code": "1450",
        "area": "Social Analysis"
    },
    {
        "subject": "SOSC",
        "code": "1470",
        "area": "Social Analysis"
    },
    {
        "subject": "SOSC",
        "code": "1661",
        "area": "Social Analysis"
    },
    {
        "subject": "SOSC",
        "code": "1662",
        "area": "Social Analysis"
    },
    {
        "subject": "SOSC",
        "code": "1700",
        "area": "Social Analysis"
    },
    {
        "subject": "SOSC",
        "code": "1780",
        "area": "Social Analysis"
    },
    {
        "subject": "SOSC",
        "code": "1850",
        "area": "Social Analysis"
    },
    {
        "subject": "SOSC",
        "code": "1860",
        "area": "Social Analysis"
    },
    {
        "subject": "SOSC",
        "code": "1960",
        "area": "Social Analysis"
    },
    {
        "subject": "SOSC",
        "code": "1980",
        "area": "Social Analysis"
    },
    {
        "subject": "SOSC",
        "code": "2130",
        "area": "Social Analysis"
    },
    {
        "subject": "SOSC",
        "code": "2290",
        "area": "Social Analysis"
    },
    {
        "subject": "SOSC",
        "code": "3001",
        "area": "Social Analysis"
    },
    {
        "subject": "SOSC",
        "code": "3240",
        "area": "Social Analysis"
    },
    {
        "subject": "SOSC",
        "code": "3520",
        "area": "Social Analysis"
    },
    {
        "subject": "SOSC",
        "code": "3630",
        "area": "Social Analysis"
    },
    {
        "subject": "SOSC",
        "code": "3880",
        "area": "Social Analysis"
    },
    {
        "subject": "SUST",
        "code": "1000",
        "area": "Social Analysis"
    },
    {
        "subject": "BIEN",
        "code": "1010",
        "area": "Science and Technology"
    },
    {
        "subject": "CENG",
        "code": "1500",
        "area": "Science and Technology"
    },
    {
        "subject": "CHEM",
        "code": "1004",
        "area": "Science and Technology"
    },
    {
        "subject": "CIVL",
        "code": "1160",
        "area": "Science and Technology"
    },
    {
        "subject": "CIVL",
        "code": "1170",
        "area": "Science and Technology"
    },
    {
        "subject": "COMP",
        "code": "1001",
        "area": "Science and Technology"
    },
    {
        "subject": "ELEC",
        "code": "1010",
        "area": "Science and Technology"
    },
    {
        "subject": "ELEC",
        "code": "1030",
        "area": "Science and Technology"
    },
    {
        "subject": "ENGG",
        "code": "1110",
        "area": "Science and Technology"
    },
    {
        "subject": "ENGG",
        "code": "1130",
        "area": "Science and Technology"
    },
    {
        "subject": "ENGG",
        "code": "1150",
        "area": "Science and Technology"
    },
    {
        "subject": "ENTR",
        "code": "1001",
        "area": "Science and Technology"
    },
    {
        "subject": "ENVR",
        "code": "1030",
        "area": "Science and Technology"
    },
    {
        "subject": "ENVR",
        "code": "1040",
        "area": "Science and Technology"
    },
    {
        "subject": "ENVR",
        "code": "1080",
        "area": "Science and Technology"
    },
    {
        "subject": "ENVR",
        "code": "1170",
        "area": "Science and Technology"
    },
    {
        "subject": "ENVR",
        "code": "2020",
        "area": "Science and Technology"
    },
    {
        "subject": "ENVR",
        "code": "2070",
        "area": "Science and Technology"
    },
    {
        "subject": "IEDA",
        "code": "2200",
        "area": "Science and Technology"
    },
    {
        "subject": "ISDN",
        "code": "1100",
        "area": "Science and Technology"
    },
    {
        "subject": "LIFS",
        "code": "1030",
        "area": "Science and Technology"
    },
    {
        "subject": "MECH",
        "code": "1905",
        "area": "Science and Technology"
    },
    {
        "subject": "OCES",
        "code": "1030",
        "area": "Science and Technology"
    },
    {
        "subject": "PHYS",
        "code": "1001",
        "area": "Science and Technology"
    },
    {
        "subject": "PHYS",
        "code": "1002",
        "area": "Science and Technology"
    },
    {
        "subject": "PHYS",
        "code": "1003",
        "area": "Science and Technology"
    },
    {
        "subject": "PHYS",
        "code": "1007",
        "area": "Science and Technology"
    },
    {
        "subject": "PHYS",
        "code": "1112",
        "area": "Science and Technology"
    },
    {
        "subject": "PPOL",
        "code": "2110",
        "area": "Science and Technology"
    },
    {
        "subject": "SCIE",
        "code": "1120",
        "area": "Science and Technology"
    },
    {
        "subject": "SUST",
        "code": "1000",
        "area": "Science and Technology"
    },
    {
        "subject": "COMP",
        "code": "1021",
        "area": "Quantitative Reasoning"
    },
    {
        "subject": "COMP",
        "code": "1022P",
        "area": "Quantitative Reasoning"
    },
    {
        "subject": "COMP",
        "code": "1942",
        "area": "Quantitative Reasoning"
    },
    {
        "subject": "COMP",
        "code": "2711",
        "area": "Quantitative Reasoning"
    },
    {
        "subject": "MATH",
        "code": "1012",
        "area": "Quantitative Reasoning"
    },
    {
        "subject": "MATH",
        "code": "1013",
        "area": "Quantitative Reasoning"
    },
    {
        "subject": "RMBI",
        "code": "1020",
        "area": "Quantitative Reasoning"
    },
    {
        "subject": "HART",
        "code": "1001",
        "area": "Arts"
    },
    {
        "subject": "HART",
        "code": "1012",
        "area": "Arts"
    },
    {
        "subject": "HART",
        "code": "1013",
        "area": "Arts"
    },
    {
        "subject": "HART",
        "code": "1023",
        "area": "Arts"
    },
    {
        "subject": "HART",
        "code": "1036",
        "area": "Arts"
    },
    {
        "subject": "HUMA",
        "code": "1100",
        "area": "Arts"
    },
    {
        "subject": "HUMA",
        "code": "1102",
        "area": "Arts"
    },
    {
        "subject": "HUMA",
        "code": "1660",
        "area": "Arts"
    },
    {
        "subject": "HUMA",
        "code": "2101",
        "area": "Arts"
    },
    {
        "subject": "HUMA",
        "code": "2104",
        "area": "Arts"
    },
    {
        "subject": "HUMA",
        "code": "2107",
        "area": "Arts"
    },
    {
        "subject": "HUMA",
        "code": "3201",
        "area": "Arts"
    },
    {
        "subject": "HUMA",
        "code": "3680",
        "area": "Arts"
    },
    {
        "subject": "LANG",
        "code": "1002A",
        "area": "English Communication"
    },
    {
        "subject": "LANG",
        "code": "1002I",
        "area": "English Communication"
    },
    {
        "subject": "LANG",
        "code": "1002S",
        "area": "English Communication"
    },
    {
        "subject": "LANG",
        "code": "1003A",
        "area": "English Communication"
    },
    {
        "subject": "LANG",
        "code": "1003I",
        "area": "English Communication"
    },
    {
        "subject": "LANG",
        "code": "1003S",
        "area": "English Communication"
    },
    {
        "subject": "HUMA",
        "code": "1660",
        "area": "Chinese Communication"
    },
    {
        "subject": "HUMA",
        "code": "2050",
        "area": "Chinese Communication"
    },
    {
        "subject": "LANG",
        "code": "1113C",
        "area": "Chinese Communication"
    },
    {
        "subject": "LANG",
        "code": "1113I",
        "area": "Chinese Communication"
    },
    {
        "subject": "LANG",
        "code": "1113P",
        "area": "Chinese Communication"
    },
    {
        "subject": "LANG",
        "code": "1117C",
        "area": "Chinese Communication"
    },
    {
        "subject": "LANG",
        "code": "1117P",
        "area": "Chinese Communication"
    },
    {
        "subject": "LANG",
        "code": "1118",
        "area": "Chinese Communication"
    },
    {
        "subject": "LANG",
        "code": "1120",
        "area": "Chinese Communication"
    },
    {
        "subject": "LANG",
        "code": "1121",
        "area": "Chinese Communication"
    },
    {
        "subject": "LANG",
        "code": "1122",
        "area": "Chinese Communication"
    },
    {
        "subject": "LANG",
        "code": "1123",
        "area": "Chinese Communication"
    },
    {
        "subject": "LANG",
        "code": "1124",
        "area": "Chinese Communication"
    },
    {
        "subject": "LANG",
        "code": "1125",
        "area": "Chinese Communication"
    },
    {
        "subject": "LANG",
        "code": "1127",
        "area": "Chinese Communication"
    },
    {
        "subject": "HLTH",
        "code": "1010",
        "area": "Healthy Lifestyle"
    }
]
