[
    {
        "subject": "huma",
        "code": "1000a",
        "area": "humanities"
    },
    {
        "subject": "huma",
        "code": "1000b",
        "area": "humanities"
    },
    {
        "subject": "huma",
        "code": "1000d",
        "area": "humanities"
    },
    {
        "subject": "huma",
        "code": "1001b",
        "area": "humanities"
    },
    {
        "subject": "huma",
        "code": "1010",
        "area": "humanities"
    },
    {
        "subject": "huma",
        "code": "1020",
        "area": "humanities"
    },
    {
        "subject": "huma",
        "code": "1060",
        "area": "humanities"
    },
    {
        "subject": "huma",
        "code": "1100",
        "area": "humanities"
    },
    {
        "subject": "huma",
        "code": "1102",
        "area": "humanities"
    },
    {
        "subject": "huma",
        "code": "1420",
        "area": "humanities"
    },
    {
        "subject": "huma",
        "code": "1520",
        "area": "humanities"
    },
    {
        "subject": "huma",
        "code": "1639",
        "area": "humanities"
    },
    {
        "subject": "huma",
        "code": "1660",
        "area": "humanities"
    },
    {
        "subject": "huma",
        "code": "1710",
        "area": "humanities"
    },
    {
        "subject": "huma",
        "code": "1720",
        "area": "humanities"
    },
    {
        "subject": "huma",
        "code": "2050",
        "area": "humanities"
    },
    {
        "subject": "huma",
        "code": "2101",
        "area": "humanities"
    },
    {
        "subject": "huma",
        "code": "2104",
        "area": "humanities"
    },
    {
        "subject": "huma",
        "code": "2107",
        "area": "humanities"
    },
    {
        "subject": "huma",
        "code": "2300",
        "area": "humanities"
    },
    {
        "subject": "huma",
        "code": "2590",
        "area": "humanities"
    },
    {
        "subject": "huma",
        "code": "2597",
        "area": "humanities"
    },
    {
        "subject": "huma",
        "code": "2632",
        "area": "humanities"
    },
    {
        "subject": "huma",
        "code": "2640",
        "area": "humanities"
    },
    {
        "subject": "huma",
        "code": "3030",
        "area": "humanities"
    },
    {
        "subject": "huma",
        "code": "3201",
        "area": "humanities"
    },
    {
        "subject": "huma",
        "code": "3680",
        "area": "humanities"
    },
    {
        "subject": "lang",
        "code": "1004",
        "area": "humanities"
    },
    {
        "subject": "sosc",
        "code": "3001",
        "area": "humanities"
    },
    {
        "subject": "acct",
        "code": "1610",
        "area": "social analysis"
    },
    {
        "subject": "econ",
        "code": "2103",
        "area": "social analysis"
    },
    {
        "subject": "econ",
        "code": "2123",
        "area": "social analysis"
    },
    {
        "subject": "envr",
        "code": "1080",
        "area": "social analysis"
    },
    {
        "subject": "envr",
        "code": "2050",
        "area": "social analysis"
    },
    {
        "subject": "fina",
        "code": "1303",
        "area": "social analysis"
    },
    {
        "subject": "isom",
        "code": "1380",
        "area": "social analysis"
    },
    {
        "subject": "isom",
        "code": "2030",
        "area": "social analysis"
    },
    {
        "subject": "mark",
        "code": "1220",
        "area": "social analysis"
    },
    {
        "subject": "mgmt",
        "code": "1120",
        "area": "social analysis"
    },
    {
        "subject": "ppol",
        "code": "2110",
        "area": "social analysis"
    },
    {
        "subject": "sosc",
        "code": "1300",
        "area": "social analysis"
    },
    {
        "subject": "sosc",
        "code": "1350",
        "area": "social analysis"
    },
    {
        "subject": "sosc",
        "code": "1400",
        "area": "social analysis"
    },
    {
        "subject": "sosc",
        "code": "1420",
        "area": "social analysis"
    },
    {
        "subject": "sosc",
        "code": "1450",
        "area": "social analysis"
    },
    {
        "subject": "sosc",
        "code": "1470",
        "area": "social analysis"
    },
    {
        "subject": "sosc",
        "code": "1661",
        "area": "social analysis"
    },
    {
        "subject": "sosc",
        "code": "1662",
        "area": "social analysis"
    },
    {
        "subject": "sosc",
        "code": "1700",
        "area": "social analysis"
    },
    {
        "subject": "sosc",
        "code": "1780",
        "area": "social analysis"
    },
    {
        "subject": "sosc",
        "code": "1850",
        "area": "social analysis"
    },
    {
        "subject": "sosc",
        "code": "1860",
        "area": "social analysis"
    },
    {
        "subject": "sosc",
        "code": "1960",
        "area": "social analysis"
    },
    {
        "subject": "sosc",
        "code": "1980",
        "area": "social analysis"
    },
    {
        "subject": "sosc",
        "code": "2130",
        "area": "social analysis"
    },
    {
        "subject": "sosc",
        "code": "2290",
        "area": "social analysis"
    },
    {
        "subject": "sosc",
        "code": "3001",
        "area": "social analysis"
    },
    {
        "subject": "sosc",
        "code": "3240",
        "area": "social analysis"
    },
    {
        "subject": "sosc",
        "code": "3520",
        "area": "social analysis"
    },
    {
        "subject": "sosc",
        "code": "3630",
        "area": "social analysis"
    },
    {
        "subject": "sosc",
        "code": "3880",
        "area": "social analysis"
    },
    {
        "subject": "sust",
        "code": "1000",
        "area": "social analysis"
    },
    {
        "subject": "bien",
        "code": "1010",
        "area": "science and technology"
    },
    {
        "subject": "ceng",
        "code": "1500",
        "area": "science and technology"
    },
    {
        "subject": "chem",
        "code": "1004",
        "area": "science and technology"
    },
    {
        "subject": "civl",
        "code": "1160",
        "area": "science and technology"
    },
    {
        "subject": "civl",
        "code": "1170",
        "area": "science and technology"
    },
    {
        "subject": "comp",
        "code": "1001",
        "area": "science and technology"
    },
    {
        "subject": "elec",
        "code": "1010",
        "area": "science and technology"
    },
    {
        "subject": "elec",
        "code": "1030",
        "area": "science and technology"
    },
    {
        "subject": "engg",
        "code": "1110",
        "area": "science and technology"
    },
    {
        "subject": "engg",
        "code": "1130",
        "area": "science and technology"
    },
    {
        "subject": "engg",
        "code": "1150",
        "area": "science and technology"
    },
    {
        "subject": "entr",
        "code": "1001",
        "area": "science and technology"
    },
    {
        "subject": "envr",
        "code": "1030",
        "area": "science and technology"
    },
    {
        "subject": "envr",
        "code": "1040",
        "area": "science and technology"
    },
    {
        "subject": "envr",
        "code": "1080",
        "area": "science and technology"
    },
    {
        "subject": "envr",
        "code": "1170",
        "area": "science and technology"
    },
    {
        "subject": "envr",
        "code": "2020",
        "area": "science and technology"
    },
    {
        "subject": "envr",
        "code": "2070",
        "area": "science and technology"
    },
    {
        "subject": "ieda",
        "code": "2200",
        "area": "science and technology"
    },
    {
        "subject": "isdn",
        "code": "1100",
        "area": "science and technology"
    },
    {
        "subject": "lifs",
        "code": "1030",
        "area": "science and technology"
    },
    {
        "subject": "mech",
        "code": "1905",
        "area": "science and technology"
    },
    {
        "subject": "oces",
        "code": "1030",
        "area": "science and technology"
    },
    {
        "subject": "phys",
        "code": "1001",
        "area": "science and technology"
    },
    {
        "subject": "phys",
        "code": "1002",
        "area": "science and technology"
    },
    {
        "subject": "phys",
        "code": "1003",
        "area": "science and technology"
    },
    {
        "subject": "phys",
        "code": "1007",
        "area": "science and technology"
    },
    {
        "subject": "phys",
        "code": "1112",
        "area": "science and technology"
    },
    {
        "subject": "ppol",
        "code": "2110",
        "area": "science and technology"
    },
    {
        "subject": "scie",
        "code": "1120",
        "area": "science and technology"
    },
    {
        "subject": "sust",
        "code": "1000",
        "area": "science and technology"
    },
    {
        "subject": "comp",
        "code": "1021",
        "area": "quantitative reasoning"
    },
    {
        "subject": "comp",
        "code": "1022p",
        "area": "quantitative reasoning"
    },
    {
        "subject": "comp",
        "code": "1942",
        "area": "quantitative reasoning"
    },
    {
        "subject": "comp",
        "code": "2711",
        "area": "quantitative reasoning"
    },
    {
        "subject": "math",
        "code": "1012",
        "area": "quantitative reasoning"
    },
    {
        "subject": "math",
        "code": "1013",
        "area": "quantitative reasoning"
    },
    {
        "subject": "rmbi",
        "code": "1020",
        "area": "quantitative reasoning"
    },
    {
        "subject": "hart",
        "code": "1001",
        "area": "arts"
    },
    {
        "subject": "hart",
        "code": "1012",
        "area": "arts"
    },
    {
        "subject": "hart",
        "code": "1013",
        "area": "arts"
    },
    {
        "subject": "hart",
        "code": "1023",
        "area": "arts"
    },
    {
        "subject": "hart",
        "code": "1036",
        "area": "arts"
    },
    {
        "subject": "huma",
        "code": "1100",
        "area": "arts"
    },
    {
        "subject": "huma",
        "code": "1102",
        "area": "arts"
    },
    {
        "subject": "huma",
        "code": "1660",
        "area": "arts"
    },
    {
        "subject": "huma",
        "code": "2101",
        "area": "arts"
    },
    {
        "subject": "huma",
        "code": "2104",
        "area": "arts"
    },
    {
        "subject": "huma",
        "code": "2107",
        "area": "arts"
    },
    {
        "subject": "huma",
        "code": "3201",
        "area": "arts"
    },
    {
        "subject": "huma",
        "code": "3680",
        "area": "arts"
    },
    {
        "subject": "lang",
        "code": "1002a",
        "area": "english communication"
    },
    {
        "subject": "lang",
        "code": "1002i",
        "area": "english communication"
    },
    {
        "subject": "lang",
        "code": "1002s",
        "area": "english communication"
    },
    {
        "subject": "lang",
        "code": "1003a",
        "area": "english communication"
    },
    {
        "subject": "lang",
        "code": "1003i",
        "area": "english communication"
    },
    {
        "subject": "lang",
        "code": "1003s",
        "area": "english communication"
    },
    {
        "subject": "huma",
        "code": "1660",
        "area": "chinese communication"
    },
    {
        "subject": "huma",
        "code": "2050",
        "area": "chinese communication"
    },
    {
        "subject": "lang",
        "code": "1113c",
        "area": "chinese communication"
    },
    {
        "subject": "lang",
        "code": "1113i",
        "area": "chinese communication"
    },
    {
        "subject": "lang",
        "code": "1113p",
        "area": "chinese communication"
    },
    {
        "subject": "lang",
        "code": "1117c",
        "area": "chinese communication"
    },
    {
        "subject": "lang",
        "code": "1117p",
        "area": "chinese communication"
    },
    {
        "subject": "lang",
        "code": "1118",
        "area": "chinese communication"
    },
    {
        "subject": "lang",
        "code": "1120",
        "area": "chinese communication"
    },
    {
        "subject": "lang",
        "code": "1121",
        "area": "chinese communication"
    },
    {
        "subject": "lang",
        "code": "1122",
        "area": "chinese communication"
    },
    {
        "subject": "lang",
        "code": "1123",
        "area": "chinese communication"
    },
    {
        "subject": "lang",
        "code": "1124",
        "area": "chinese communication"
    },
    {
        "subject": "lang",
        "code": "1125",
        "area": "chinese communication"
    },
    {
        "subject": "lang",
        "code": "1127",
        "area": "chinese communication"
    },
    {
        "subject": "hlth",
        "code": "1010",
        "area": "healthy lifestyle"
    }
]
